<?xml version="1.0" encoding="UTF-8" standalone="no"?>
<!DOCTYPE svg PUBLIC "-//W3C//DTD SVG 1.1//EN"
 "http://www.w3.org/Graphics/SVG/1.1/DTD/svg11.dtd">
<!-- Generated by graphviz version 2.43.0 (0)
 -->
<!-- Title: G Pages: 1 -->
<svg width="154pt" height="116pt"
 viewBox="0.00 0.00 153.59 116.00" xmlns="http://www.w3.org/2000/svg" xmlns:xlink="http://www.w3.org/1999/xlink">
<g id="graph0" class="graph" transform="scale(1 1) rotate(0) translate(4 112)">
<title>G</title>
<polygon fill="white" stroke="transparent" points="-4,4 -4,-112 149.59,-112 149.59,4 -4,4"/>
<!-- /bag_recorder -->
<g id="node1" class="node">
<title>/bag_recorder</title>
<ellipse fill="#072c43" stroke="black" cx="72.79" cy="-90" rx="72.59" ry="18"/>
<text text-anchor="middle" x="72.79" y="-86.3" font-family="sans-serif" font-size="14.00" fill="#a4c4bf">/bag_recorder</text>
</g>
<!-- /diagnostics -->
<g id="node2" class="node">
<title>/diagnostics</title>
<polygon fill="#fbd740" stroke="black" points="122.79,-36 22.79,-36 22.79,0 122.79,0 122.79,-36"/>
<text text-anchor="middle" x="72.79" y="-14.3" font-family="sans-serif" font-size="14.00">/diagnostics</text>
</g>
<!-- /bag_recorder&#45;&gt;/diagnostics -->
<g id="edge1" class="edge">
<title>/bag_recorder&#45;&gt;/diagnostics</title>
<path fill="none" stroke="black" d="M72.79,-71.7C72.79,-63.98 72.79,-54.71 72.79,-46.11"/>
<polygon fill="black" stroke="black" points="76.29,-46.1 72.79,-36.1 69.29,-46.1 76.29,-46.1"/>
</g>
</g>
</svg>
